...
----------------------------------------------------------------------
Ran 3 tests in 0.000s

OK
Name               Stmts   Miss Branch BrPart  Cover   Missing
--------------------------------------------------------------
Diplomacy.py          69      2     48      1    97%   28, 94
TestDiplomacy.py      21      0      4      1    96%   39->exit
--------------------------------------------------------------
TOTAL                 90      2     52      2    97%
